{
	"id": "b1dee60c-e431-4172-917f-3ef95b323607",
	"name": "Production",
	"values": [
		{
			"key": "baseUrl",
			"value": "http://carsapi-env.eba-wpt3z4h5.us-east-2.elasticbeanstalk.com/",
			"enabled": true
		}
	],
	"_postman_variable_scope": "environment",
	"_postman_exported_at": "2021-05-10T03:06:56.229Z",
	"_postman_exported_using": "Postman/7.36.5"
}